AI Text Mining
…
Visualize Data: Basic word counts, bar graphs frequencies

Topic modeling using LDA

Topic modeling using STM

Sentiment analysis

Reading the Tea Leaves

Visualize Data: Basic word counts, bar graphs frequencies

###Term Frequency-Inverse Document Frequency

## # A tibble: 3,200 x 2
##    Title                                              total
##  * <chr>                                              <int>
##  1 ... or More Modern, High-Tech Pursuits                86
##  2 'Al Gore Has a Beard'                                 65
##  3 'American Idol': There's Got to Be a Morning After   132
##  4 'ASSASSIN,' A CBS MOVIE ABOUT A KILLER ROBOT          97
##  5 'Better Call Saul' Recap: Help a Nacho Out            35
##  6 'BIG FLOYD' JOINS THE FORCE                          111
##  7 'Cartoons Come to Paterson'                           72
##  8 'Double' Turns the iPad Into a Telepresence Robot    125
##  9 'Dressed Like the Mayor'                              99
## 10 'Eureka!' Off Gibraltar: A Trove From 1694?           61
## #  with 3,190 more rows
…
Sentiment Analysis Using Bing

## # A tibble: 121 x 5
## # Groups:   Section [121]
##    lexicon Section               negative positive sentiment
##    <chr>   <chr>                    <int>    <int>     <int>
##  1 bing    Arts                       486      435       -51
##  2 bing    Arts; Books                 70       72         2
##  3 bing    Arts; Books; Opinion         3        3         0
##  4 bing    Arts; Obituaries             4       NA        NA
##  5 bing    Arts; Style; Magazine       NA        1        NA
##  6 bing    Arts; Theater               16       10        -6
##  7 bing    Automobiles                  8       12         4
##  8 bing    Autos                       19       11        -8
##  9 bing    Blogs                       27       17       -10
## 10 bing    Books                      147       82       -65
## #  with 111 more rows

## # A tibble: 2,390 x 5
## # Groups:   word [2,390]
##    lexicon word      negative positive sentiment
##    <chr>   <chr>        <int>    <int>     <int>
##  1 bing    abolish          2       NA        NA
##  2 bing    aborted          5       NA        NA
##  3 bing    abound          NA        1        NA
##  4 bing    abrasive         3       NA        NA
##  5 bing    abrupt           1       NA        NA
##  6 bing    abruptly         1       NA        NA
##  7 bing    absence          2       NA        NA
##  8 bing    absurd           1       NA        NA
##  9 bing    absurdity        1       NA        NA
## 10 bing    absurdly         1       NA        NA
## #  with 2,380 more rows
…
